[
    {
        "date": "2020/12/21",
        "title": "Taking Up Second Committee Reports, General Assembly Adopts 36 Resolutions, including Text Calling for Building Back Better in Wake of Pandemic",
        "detail_url": "https://www.un.org/press/en/2020/ga12306.doc.htm"
    },
    {
        "date": "2020/12/21",
        "title": "General Assembly Declares International Day of Human Fraternity in Response to Growing Religious Hatred amid Pandemic, Adopts 3 Other Texts on Myriad Issues",
        "detail_url": "https://www.un.org/press/en/2020/ga12305.doc.htm"
    },
    {
        "date": "2020/12/16",
        "title": "General Assembly Adopts 48 Third Committee Resolutions, Proclaims International Day for People of African Descent, Covering Broad Themes of Human Rights",
        "detail_url": "https://www.un.org/press/en/2020/ga12304.doc.htm"
    },
    {
        "date": "2020/12/15",
        "title": "Adopting 29 Legal Texts, General Assembly Reaffirms Sixth Committee’s Vital Role in Progressive Development of International Law",
        "detail_url": "https://www.un.org/press/en/2020/ga12303.doc.htm"
    },
    {
        "date": "2020/12/14",
        "title": "Cautiously Optimistic about COVID-19 Vaccine, Speakers in General Assembly Say Multilateral Approaches Key for Ensuring Unhindered, Equitable Distribution",
        "detail_url": "https://www.un.org/press/en/2020/ga12302.doc.htm"
    },
    {
        "date": "2020/12/14",
        "title": "Adopting 4 Resolutions, General Assembly Stresses Need for Affordable Health Care, Establishes Decade of Healthy Ageing, Elects Peacebuilding Committee Members",
        "detail_url": "https://www.un.org/press/en/2020/ga12301.doc.htm"
    },
    {
        "date": "2020/12/11",
        "title": "General Assembly Adopts 4 Humanitarian Aid Resolutions, as Delegates Brace for COVID-19’s Broader Impact amid Threat of Famine, Economic Hardship",
        "detail_url": "https://www.un.org/press/en/2020/ga12300.doc.htm"
    },
    {
        "date": "2020/12/10",
        "title": "General Assembly Adopts 34 Draft Resolutions, Decisions from Fourth Committee, Including Texts on Middle East, Decolonization, Information Questions",
        "detail_url": "https://www.un.org/press/en/2020/ga12299.doc.htm"
    },
    {
        "date": "2020/12/10",
        "title": "Adopting Annual Resolution on Afghanistan, General Assembly Commends Progress in Peace Talks while Voicing Concern over Chronic Terrorist Violence",
        "detail_url": "https://www.un.org/press/en/2020/ga12298.doc.htm"
    },
    {
        "date": "2020/12/8",
        "title": "Delegates Approve Resolution on Quadrennial Comprehensive Policy Review, as Second Committee Concludes Session",
        "detail_url": "https://www.un.org/press/en/2020/gaef3545.doc.htm"
    }
]
